iteration,iteration_time,train_error,validation_acc
1,93.26131701469421,4.192500738116327,4.138496209793075
2,196.31507205963135,4.0921169176262175,4.056545789797172
3,194.64387798309326,4.694419840566874,4.548248309772587
4,193.9601080417633,5.878358429288456,5.47019053472649
5,195.16775918006897,8.04251550044287,7.129686539643516
6,192.4872498512268,8.854443460289342,8.297480024585125
7,196.60529899597168,12.111012695600827,12.169637369391518
8,195.5420699119568,9.825804546796576,10.120876869493955
9,199.9578619003296,17.180395630351345,16.51300962917435
10,199.4321219921112,18.748154709182167,17.557877484122105
11,198.9297149181366,21.535281960436965,20.95881991395206
12,197.39170908927917,22.804842043105992,22.96660520385167
13,200.01505994796753,24.732801889577797,23.99098545380045
14,199.8263578414917,24.348981399468556,23.028068018848597
15,202.09567308425903,25.656923531148507,24.523663183773817
16,204.09061217308044,28.48243283141423,29.17434951854128
17,202.40398693084717,29.456746383229998,29.256299938537182
18,203.1683361530304,31.50575730735164,30.854333128457284
19,201.97661209106445,34.54089164452318,34.091374718295434
20,224.71242308616638,35.04281074697372,33.7021102233149
21,224.8081579208374,35.26719811042221,35.07477975824626
22,196.18158507347107,35.46796575140242,35.79184593321041
23,201.4979829788208,39.73427812223206,38.49620979307519
24,210.85886979103088,41.213463241806906,40.15570579799221
25,208.07932996749878,36.941245940360204,35.17721778324114
26,208.5926399230957,41.87186300560968,41.30301167793485
27,208.0772249698639,42.683790965456154,41.077648022946114
28,213.07981896400452,45.12843224092117,43.454210202827284
29,209.15174913406372,42.6158842633599,41.46691251792665
30,213.94618892669678,45.35281960436965,44.048350747797585
31,206.62263321876526,45.881310894596986,44.64249129276788
32,206.70990586280823,43.70829642751698,40.995697602950216
33,204.3306920528412,49.31798051372896,47.20344191763983
34,204.92197918891907,48.68910540301151,46.44540053267773
35,202.5864679813385,49.329790374963096,47.592706412620366
36,205.83552598953247,51.28136994390316,48.45318582257734
37,205.520281791687,52.748745202243875,50.95267363245236
38,202.68032693862915,51.665190434012395,48.86293792255685
39,205.29211592674255,52.40625922645409,50.13316943249334
40,203.7705979347229,54.81251845290818,52.20241753738988
41,202.58550000190735,55.04281074697373,51.85412825240729
42,203.2025761604309,55.674638322999705,52.796558082360164
43,203.56705689430237,53.93563625627399,50.80926039745953
44,202.03694820404053,56.39208739297313,52.42778119237861
45,203.91178703308105,55.594921759669326,51.526326572423685
46,203.40816688537598,60.35134337171538,56.34091374718295
47,205.81293416023254,61.042220253912014,56.54578979717271
48,203.30842995643616,60.82669028638914,56.586765007170655
49,202.18377113342285,61.13965160909359,56.648227822167584
50,202.77789092063904,61.588426335990555,57.20139315713993
51,202.88637280464172,61.502804842043105,57.36529399713174
52,196.88226699829102,61.78033658104517,57.488219627125595
53,199.1248219013214,61.674047829938,57.16041794714199
54,198.21485495567322,61.641570711544134,57.32431878713379
55,220.55653595924377,61.98700915264246,57.44724441712764
56,215.8996992111206,62.267493356953054,57.52919483712354
57,194.84331393241882,62.26454089164453,57.63163286211842
58,190.90485405921936,62.418069087688224,57.79553370211023
59,191.8279049396515,62.376734573368765,57.77504609711125
60,192.0656018257141,62.084440507824034,57.693095677115345
61,191.61104798316956,62.19368172423974,57.8160213071092
62,191.8382339477539,62.47711839385887,57.91845933210408
63,192.27133512496948,62.30587540596398,57.7340708871133
64,191.98963809013367,62.23501623855919,57.754558492112274
65,191.77654004096985,62.335400059049306,57.8979717271051
66,191.01828598976135,62.36787717744316,57.95943454210203
67,190.84370589256287,62.48302332447594,57.91845933210408
68,191.32680106163025,62.311780336581045,57.91845933210408
69,190.7985758781433,62.429878948922344,57.938946937103054
70,191.52531814575195,62.56864481842338,57.938946937103054
71,190.03812789916992,62.24977856510186,57.938946937103054
72,189.69469022750854,62.46530853262474,57.938946937103054
73,191.54507493972778,62.38854443460289,57.938946937103054
74,191.47798681259155,62.5066430469442,57.938946937103054
75,190.3685758113861,62.30587540596398,57.938946937103054
76,192.22633481025696,62.30292294065545,57.938946937103054
