iteration,iteration_time,train_error,validation_acc
1,91.04243111610413,6.26513138470623,6.842860069657856
2,184.03457808494568,17.04162976085031,17.68080311411596
3,184.01328897476196,22.046058458813107,21.18418356894079
4,184.6676459312439,28.479480366105697,27.228027043638598
5,184.92261290550232,33.95925597874225,33.169432493341525
6,184.46751999855042,38.57395925597874,37.55377996312232
7,184.6557331085205,40.670209625036904,39.315713993034215
8,185.0819489955902,46.48656628284618,45.56443351772178
9,184.89048290252686,49.21464422793032,47.51075599262447
10,183.55042910575867,50.74106879244169,47.96148330260193
11,184.1226840019226,53.97401830528491,49.784880147510755
12,184.7818558216095,54.93356953055801,51.85412825240729
13,184.6169149875641,57.478594626513136,53.20631018233969
14,184.15655708312988,62.07853557720697,56.73017824216349
15,185.04916787147522,63.14437555358725,56.99651710715017
16,184.34643983840942,65.02804842043106,58.08236017209588
17,183.42690205574036,66.2621789193977,59.3321040770334
18,185.15189504623413,68.81606141127841,60.64331079696783
19,183.16317892074585,69.7106583997638,61.07355050194633
20,183.62677884101868,69.47741364038973,60.19258348699037
21,183.74748611450195,70.9861234130499,60.97111247695144
22,183.10821795463562,75.61263655152052,63.79840196681008
23,184.43711686134338,76.20608207853557,64.02376562179882
24,183.74160814285278,75.47387068201948,61.913542306904326
25,183.74978280067444,77.89784470032477,63.36816226183159
26,183.4246838092804,78.97844700324771,64.04425322679779
27,183.9835729598999,78.56510186005315,63.38864986683057
28,183.64147400856018,80.48125184529081,63.96230280680189
29,183.42019295692444,82.17006200177148,64.72034419176399
30,183.21242094039917,84.08621198700915,65.49887318172506
31,183.70131397247314,83.07646885149099,64.3720549067814
32,184.2266490459442,84.97195157956894,66.42081540667895
33,187.62245106697083,85.83111898435193,65.62179881171892
34,183.7137098312378,86.2621789193977,65.15058389674248
35,182.86663603782654,88.26985532919988,66.66666666666666
36,181.8186411857605,86.41570711544139,64.88424503175578
37,181.11041593551636,86.92648361381754,65.0481458717476
38,180.42977714538574,89.76675524062591,66.58471624667077
39,180.47306895256042,94.44050782403308,69.22761729153862
40,181.2550220489502,95.03985828166519,69.59639418152018
41,180.7411630153656,95.68054325361676,70.04712149149765
42,180.44380903244019,95.99350457632123,70.02663388649867
43,181.18882489204407,96.17360496014172,69.96517107150174
44,181.41654300689697,96.35961027457928,70.0880967014956
45,180.98700594902039,96.66076173604961,70.06760909649662
46,179.79279804229736,96.99143785060525,70.17004712149149
47,178.43579387664795,97.10363153232949,70.12907191149354
48,179.2917938232422,97.23944493652199,69.86273304650686
49,179.5969099998474,97.43430764688516,70.31346035648433
50,178.4306080341339,97.52583407144965,70.23150993648842
51,178.5042688846588,97.74431650428107,70.45687359147715
52,178.8868989944458,97.86536758193091,70.21102233148945
53,178.8302299976349,98.06613522291113,70.12907191149354
54,178.6784520149231,98.06023029229407,70.23150993648842
55,179.30160403251648,98.23737821080603,70.51833640647408
56,179.47758102416992,98.24623560673163,70.39541077648023
57,178.8690459728241,98.27576025981695,70.3339479614833
58,178.15175604820251,98.32299970475347,70.55931161647203
59,179.40444993972778,98.34071449660466,70.4978488014751
60,178.4579780101776,98.32004723944495,70.4978488014751
61,178.94471716880798,98.33185710067906,70.31346035648433
62,177.0728681087494,98.34071449660466,70.43638598647817
63,176.4388349056244,98.44995571302037,70.43638598647817
64,177.14314198493958,98.44995571302037,70.43638598647817
65,177.38243198394775,98.32299970475347,70.43638598647817
66,176.54196310043335,98.39681133746679,70.45687359147715
67,176.6987590789795,98.35547682314733,70.43638598647817
68,174.7082040309906,98.36433421907293,70.43638598647817
