iteration,iteration_time,train_error,validation_acc
1,97.89152383804321,13.39828757012105,14.013521819299324
2,203.8761489391327,22.140537348686156,21.14320835894284
3,204.62403106689453,30.46353705343962,30.48555623847572
4,204.16124415397644,38.727487452022444,36.959639418152015
5,203.17462491989136,44.81547091821671,42.921532472853926
6,203.84922981262207,44.66489518748155,41.97910264290105
7,204.40847897529602,50.37791555949218,46.4658881376767
8,202.78873014450073,54.73575435488633,48.903913132554806
9,203.8901128768921,60.99202834366696,53.98483917230076
10,201.28001403808594,61.28432240921169,52.30485556238476
11,202.94808101654053,65.34986713906112,55.009219422249544
12,202.12603902816772,71.49985237673458,55.84921122720754
13,204.93024802207947,74.94833185710068,55.89018643720549
14,201.63906502723694,77.52583407144967,55.86969883220652
15,203.9829821586609,81.75966932388545,56.197500512190125
16,201.73280787467957,84.3253616770003,56.832616267158365
17,203.39568710327148,85.19929140832595,55.84921122720754
18,197.72419619560242,87.40478299379983,55.07068223724647
19,197.76403284072876,85.55063478004134,55.27555828723622
20,199.04310083389282,96.24151166223797,59.51649252202418
21,207.46851778030396,97.33392382639504,59.84429420200779
22,227.22295498847961,97.89489223501624,60.254046301987294
23,198.1338129043579,98.14289932093297,59.84429420200779
24,193.64797377586365,98.54738706820196,60.27453390698627
25,194.1764259338379,98.67434307646886,60.52038516697398
26,191.8431739807129,98.81310894596989,60.04917025199754
27,192.83263301849365,98.96073221139652,59.84429420200779
28,193.28414392471313,99.08178328904636,60.376971931981146
29,192.0101330280304,99.13788012990847,60.66379840196681
30,192.6784749031067,99.24121641570711,60.82769924195861
31,192.9170479774475,99.21759669323885,60.84818684695759
32,191.17514514923096,99.34160023619722,60.78672403196066
33,193.14540600776672,99.41541186891054,60.95062487195246
34,192.68941617012024,99.32093297903751,60.868674451956565
35,192.25058388710022,99.28255093002657,60.78672403196066
36,193.17045307159424,99.36226749335695,60.93013726695349
37,192.89671802520752,99.34750516681429,60.97111247695144
38,191.80738306045532,99.35045763212283,60.95062487195246
39,191.67530584335327,99.35636256273989,60.93013726695349
40,193.69729208946228,99.4301741954532,60.93013726695349
41,193.37757802009583,99.30912311780337,60.90964966195451
42,193.33587098121643,99.35045763212283,60.90964966195451
43,193.9175808429718,99.38293475051668,60.90964966195451
44,192.48378491401672,99.38883968113375,60.90964966195451
45,191.686439037323,99.37998228520814,60.90964966195451
46,191.35969805717468,99.32388544434603,60.90964966195451
47,191.54571914672852,99.40360200767641,60.90964966195451
